module github.com/goadesign/goa.design/tools/godoc2md

require (
	bitbucket.org/pkg/inflect v0.0.0-20130829110746-8961c3750a47
	dmitri.shuralyov.com/app/changes v0.0.0-20181114035150-5af16e21babb // indirect
	dmitri.shuralyov.com/service/change v0.0.0-20190203163610-217368fe4577 // indirect
	git.apache.org/thrift.git v0.12.0 // indirect
	github.com/Shopify/sarama v1.20.1 // indirect
	github.com/coreos/go-systemd v0.0.0-20190212144455-93d5ec2c7f76 // indirect
	github.com/dimfeld/httppath v0.0.0-20170720192232-ee938bf73598 // indirect
	github.com/go-logfmt/logfmt v0.4.0 // indirect
	github.com/goadesign/goa v1.4.1
	github.com/gofrs/uuid v3.2.0+incompatible // indirect
	github.com/gogo/protobuf v1.2.0 // indirect
	github.com/golang/lint v0.0.0-20181217174547-8f45f776aaf1 // indirect
	github.com/google/pprof v0.0.0-20190208070709-b421f19a5c07 // indirect
	github.com/googleapis/gax-go v2.0.2+incompatible // indirect
	github.com/gopherjs/gopherjs v0.0.0-20181103185306-d547d1d9531e // indirect
	github.com/gorilla/mux v1.7.0 // indirect
	github.com/gregjones/httpcache v0.0.0-20190212212710-3befbb6ad0cc // indirect
	github.com/grpc-ecosystem/grpc-gateway v1.7.0 // indirect
	github.com/jinzhu/inflection v0.0.0-20180308033659-04140366298a
	github.com/kr/pretty v0.1.0
	github.com/manveru/faker v0.0.0-20171103152722-9fbc68a78c4d // indirect
	github.com/microcosm-cc/bluemonday v1.0.2 // indirect
	github.com/openzipkin/zipkin-go v0.1.5 // indirect
	github.com/pkg/errors v0.8.1 // indirect
	github.com/prometheus/client_model v0.0.0-20190129233127-fd36f4220a90 // indirect
	github.com/prometheus/common v0.2.0 // indirect
	github.com/prometheus/procfs v0.0.0-20190209105433-f8d8b3f739bd // indirect
	github.com/russross/blackfriday v2.0.0+incompatible // indirect
	github.com/shurcooL/go v0.0.0-20190121191506-3fef8c783dec // indirect
	github.com/shurcooL/gofontwoff v0.0.0-20181114050219-180f79e6909d // indirect
	github.com/shurcooL/highlight_diff v0.0.0-20181222201841-111da2e7d480 // indirect
	github.com/shurcooL/highlight_go v0.0.0-20181215221002-9d8641ddf2e1 // indirect
	github.com/shurcooL/home v0.0.0-20190204141146-5c8ae21d4240 // indirect
	github.com/shurcooL/htmlg v0.0.0-20190120222857-1e8a37b806f3 // indirect
	github.com/shurcooL/httpfs v0.0.0-20181222201310-74dc9339e414 // indirect
	github.com/shurcooL/issues v0.0.0-20190120000219-08d8dadf8acb // indirect
	github.com/shurcooL/issuesapp v0.0.0-20181229001453-b8198a402c58 // indirect
	github.com/shurcooL/notifications v0.0.0-20181111060504-bcc2b3082a7a // indirect
	github.com/shurcooL/octicon v0.0.0-20181222203144-9ff1a4cf27f4 // indirect
	github.com/shurcooL/reactions v0.0.0-20181222204718-145cd5e7f3d1 // indirect
	github.com/shurcooL/sanitized_anchor_name v1.0.0 // indirect
	github.com/shurcooL/webdavfs v0.0.0-20181215192745-5988b2d638f6 // indirect
	github.com/sirupsen/logrus v1.3.0 // indirect
	github.com/stretchr/testify v1.3.0 // indirect
	github.com/zach-klippenstein/goregen v0.0.0-20160303162051-795b5e3961ea // indirect
	go.opencensus.io v0.19.0 // indirect
	go4.org v0.0.0-20181109185143-00e24f1b2599 // indirect
	golang.org/x/build v0.0.0-20190215225244-0261b66eb045 // indirect
	golang.org/x/exp v0.0.0-20190212162250-21964bba6549 // indirect
	golang.org/x/oauth2 v0.0.0-20190212230446-3e8b2be13635 // indirect
	golang.org/x/perf v0.0.0-20190124201629-844a5f5b46f4 // indirect
	golang.org/x/sys v0.0.0-20190215142949-d0b11bdaac8a // indirect
	golang.org/x/tools v0.0.0-20190214204934-8dcb7bc8c7fe
	google.golang.org/genproto v0.0.0-20190215211957-bd968387e4aa // indirect
	google.golang.org/grpc v1.18.0 // indirect
	honnef.co/go/tools v0.0.0-20190215041234-466a0476246c // indirect
	sourcegraph.com/sqs/pbtypes v1.0.0 // indirect
)
